{
  "files": {
    "main.css": "/static/css/main.69ff6807.chunk.css",
    "main.js": "/static/js/main.31363f16.chunk.js",
    "main.js.map": "/static/js/main.31363f16.chunk.js.map",
    "runtime~main.js": "/static/js/runtime~main.a8a9905a.js",
    "runtime~main.js.map": "/static/js/runtime~main.a8a9905a.js.map",
    "static/css/2.18585a14.chunk.css": "/static/css/2.18585a14.chunk.css",
    "static/js/2.6d4494b3.chunk.js": "/static/js/2.6d4494b3.chunk.js",
    "static/js/2.6d4494b3.chunk.js.map": "/static/js/2.6d4494b3.chunk.js.map",
    "index.html": "/index.html",
    "precache-manifest.2cec494791c925000ea97682d4fc97f5.js": "/precache-manifest.2cec494791c925000ea97682d4fc97f5.js",
    "service-worker.js": "/service-worker.js",
    "static/css/2.18585a14.chunk.css.map": "/static/css/2.18585a14.chunk.css.map",
    "static/css/main.69ff6807.chunk.css.map": "/static/css/main.69ff6807.chunk.css.map",
    "static/media/index.css": "/static/media/bg.f9a69859.png",
    "static/media/slick-theme.css": "/static/media/slick.f97e3bbf.svg"
  }
}